INDEX VERSION 1.131+E:\workspace-sts-3.9.9.RELEASE\.metadata\.plugins\org.eclipse.jdt.core
4237753978.index
1465875448.index
1896054628.index
3745837425.index
2301861050.index
2872825281.index
144898015.index
3544623967.index
2491744499.index
2267492084.index
1289538583.index
2188010888.index
3873293291.index
3125825479.index
293715976.index
1803107354.index
124558605.index
3032694404.index
1860412528.index
2980755137.index
4206456187.index
1571242577.index
109906691.index
2614954701.index
830335798.index
2624726496.index
22226965.index
605846018.index
223274822.index
3104340509.index
4048549671.index
1713172528.index
4138495871.index
987265721.index
2686296187.index
2654082342.index
3685972209.index
1381757222.index
1434674345.index
3421819425.index
1026378174.index
2412306654.index
294737340.index
808514154.index
2828169528.index
51182271.index
3909518877.index
1296103107.index
2259722258.index
3941873928.index
3311570665.index
3428396571.index
4016199705.index
4146664092.index
2667588588.index
664763329.index
1846831198.index
1038886634.index
2623932454.index
1629812290.index
2219331635.index
2457485860.index
3104322050.index
3773202956.index
1305249723.index
715107097.index
2453797455.index
701115043.index
2283983580.index
1336197611.index
4135928660.index
2541946488.index
1479888248.index
1303184529.index
1056743262.index
2605561000.index
511481398.index
3579902010.index
2111512668.index
3919280328.index
4182774040.index
4195775373.index
177638979.index
149709369.index
2202167482.index
2205290751.index
2559787799.index
188745778.index
